#FIG 3.2  Produced by xfig version 3.2.5b
Landscape
Center
Metric
A4      
100.00
Single
-2
1200 2
0 32 #e2e2ee
0 33 #94949a
0 34 #dbdbdb
0 35 #a1a1b7
0 36 #9c0000
0 37 #ededed
0 38 #e0e0e0
0 39 #86acff
0 40 #7070ff
0 41 #8e8e8e
0 42 #8c8c8c
0 43 #424242
0 44 #8c8c8c
0 45 #424242
0 46 #8c8c8c
0 47 #424242
0 48 #8c8c8c
0 49 #424242
0 50 #8c8c8c
0 51 #424242
0 52 #dd9d93
0 53 #f1ece0
0 54 #c3c3c3
0 55 #e2c8a8
0 56 #e1e1e1
0 57 #d2d2d2
0 58 #da7a1a
0 59 #f1e41a
0 60 #887dc2
0 61 #b0a193
0 62 #837cdd
0 63 #d6d6d6
0 64 #8c8ca5
0 65 #4a4a4a
0 66 #8c6b6b
0 67 #5a5a5a
0 68 #636363
0 69 #b79b73
0 70 #4193ff
0 71 #bf703b
0 72 #db7700
0 73 #dab800
0 74 #006400
0 75 #5a6b3b
0 76 #d3d3d3
0 77 #aaaaaa
0 78 #8e8ea4
0 79 #f3b95d
0 80 #89996b
0 81 #646464
0 82 #b7e6ff
0 83 #86c0ec
0 84 #bdbdbd
0 85 #d39552
0 86 #98d2fe
0 87 #616161
0 88 #aeb2ae
0 89 #717171
0 90 #ff9a00
0 91 #8c9c6b
0 92 #f76b00
0 93 #5a6b39
0 94 #8c9c6b
0 95 #8c9c7b
0 96 #184a18
0 97 #adadad
0 98 #f7bd5a
0 99 #636b9c
0 100 #f7f7f7
0 101 #de0000
0 102 #adadad
0 103 #f7bd5a
0 104 #adadad
0 105 #f7bd5a
0 106 #636b9c
0 107 #526b29
0 108 #949494
0 109 #006300
0 110 #00634a
0 111 #7b844a
0 112 #e7bd7b
0 113 #a5b5c6
0 114 #6b6b94
0 115 #846b6b
0 116 #529c4a
0 117 #d6e7e7
0 118 #526363
0 119 #186b4a
0 120 #9ca5b5
0 121 #ff9400
0 122 #ff9400
0 123 #00634a
0 124 #7b844a
0 125 #63737b
0 126 #e7bd7b
0 127 #184a18
0 128 #000000
0 129 #f73829
0 130 #000000
0 131 #ffff52
0 132 #52794a
0 133 #639a5a
0 134 #c66142
0 135 #e76942
0 136 #ff7952
0 137 #dedede
0 138 #f3eed3
0 139 #f5ae5d
0 140 #95ce99
0 141 #b5157d
0 142 #eeeeee
0 143 #848484
0 144 #7b7b7b
0 145 #005a00
0 146 #e77373
0 147 #ffcb31
0 148 #29794a
0 149 #de2821
0 150 #2159c6
0 151 #f8f8f8
0 152 #e6e6e6
0 153 #21845a
0 154 #c9c9c9
0 155 #dfd8df
0 156 #f7f3f7
0 157 #7c7c7c
0 158 #c9aaa1
0 159 #808080
0 160 #b6b6b6
0 161 #ac9478
0 162 #c6b797
0 163 #eff8ff
0 164 #dccba6
0 165 #404040
0 166 #c0c0c0
0 167 #8e8f8e
0 168 #555555
0 169 #c7c3c7
0 170 #565151
0 171 #d7d7d7
0 172 #85807d
0 173 #3a3a3a
0 174 #4573aa
0 175 #aeaeae
0 176 #7b79a5
0 177 #444444
0 178 #73758c
0 179 #414541
0 180 #635dce
0 181 #bebebe
0 182 #515151
0 183 #e7e3e7
0 184 #000049
0 185 #797979
0 186 #303430
0 187 #414141
0 188 #c7b696
# SPARC Ultra 30
6 315 819 2579 2430
6 2136 2200 2573 2380
2 1 0 1 0 166 8 0 20 0.000 2 0 7 0 0 2
	 2287 2228 2496 2238
2 1 0 1 0 166 8 0 20 0.000 2 0 7 0 0 2
	 2432 2233 2480 2205
2 1 0 1 0 166 8 0 20 0.000 2 0 7 0 0 2
	 2367 2228 2401 2205
2 1 0 1 159 8 7 0 20 0.000 2 0 -1 0 0 2
	 2174 2282 2403 2293
2 1 0 1 159 8 7 0 20 0.000 2 0 -1 0 0 2
	 2151 2326 2392 2336
2 3 0 1 0 159 8 0 20 0.000 2 0 7 0 0 7
	 2418 2284 2404 2330 2404 2376 2573 2278 2573 2240 2552 2207
	 2418 2284
2 1 0 1 165 166 7 0 -1 0.000 2 0 -1 0 0 2
	 2415 2328 2571 2238
2 3 0 1 0 166 9 0 20 0.000 2 0 7 0 0 9
	 2339 2200 2158 2279 2136 2326 2136 2361 2404 2380 2399 2331
	 2416 2283 2550 2204 2339 2200
-6
6 685 2073 2040 2430
6 840 2078 1897 2329
2 3 0 1 -1 7 7 0 20 0.000 0 0 -1 0 0 8
	 1761 2267 1760 2221 1787 2212 1828 2214 1826 2251 1805 2269
	 1768 2269 1761 2267
2 3 0 1 -1 7 7 0 20 0.000 0 0 -1 0 0 9
	 1611 2202 1611 2181 1633 2166 1678 2170 1678 2176 1664 2185
	 1663 2204 1608 2202 1611 2202
2 3 0 1 -1 7 7 0 20 0.000 0 0 -1 0 0 9
	 1663 2204 1663 2183 1684 2167 1729 2171 1729 2176 1716 2186
	 1713 2206 1659 2204 1663 2204
2 3 0 1 -1 7 7 0 20 0.000 0 0 -1 0 0 9
	 1711 2212 1711 2190 1733 2175 1779 2178 1779 2185 1764 2194
	 1762 2214 1708 2212 1711 2212
2 3 0 1 -1 7 7 0 20 0.000 0 0 -1 0 0 9
	 1812 2220 1812 2198 1833 2183 1877 2186 1877 2193 1869 2222
	 1846 2235 1807 2220 1812 2220
2 3 0 1 -1 7 7 0 20 0.000 0 0 -1 0 0 9
	 1025 2138 1025 2116 1047 2101 1092 2104 1092 2110 1079 2120
	 1076 2140 1022 2138 1025 2138
2 3 0 1 -1 7 7 0 20 0.000 0 0 -1 0 0 9
	 1070 2144 1070 2122 1092 2107 1137 2111 1137 2116 1123 2127
	 1122 2146 1066 2144 1070 2144
2 3 0 1 -1 7 7 0 20 0.000 0 0 -1 0 0 9
	 1124 2146 1124 2125 1146 2109 1192 2114 1192 2119 1179 2129
	 1177 2148 1122 2146 1124 2146
2 3 0 1 -1 7 7 0 20 0.000 0 0 -1 0 0 9
	 1169 2152 1169 2130 1189 2115 1235 2119 1235 2125 1222 2134
	 1219 2154 1164 2152 1169 2152
2 3 0 1 -1 7 7 0 20 0.000 0 0 -1 0 0 9
	 1219 2154 1219 2132 1241 2116 1286 2121 1286 2127 1272 2137
	 1269 2157 1215 2154 1219 2154
2 3 0 1 -1 7 7 0 20 0.000 0 0 -1 0 0 9
	 1269 2158 1269 2137 1292 2121 1336 2125 1336 2130 1322 2140
	 1321 2159 1266 2158 1269 2158
2 3 0 1 -1 7 7 0 20 0.000 0 0 -1 0 0 9
	 1320 2158 1320 2137 1341 2121 1386 2125 1386 2130 1372 2140
	 1370 2159 1315 2158 1320 2158
2 3 0 1 -1 7 7 0 20 0.000 0 0 -1 0 0 9
	 1364 2162 1364 2140 1386 2125 1431 2129 1431 2134 1418 2144
	 1415 2164 1360 2162 1364 2162
2 3 0 1 -1 7 7 0 20 0.000 0 0 -1 0 0 9
	 1420 2162 1420 2140 1441 2125 1486 2129 1486 2134 1472 2144
	 1470 2164 1415 2162 1420 2162
2 3 0 1 -1 7 7 0 20 0.000 0 0 -1 0 0 9
	 1217 2189 1217 2168 1238 2152 1284 2157 1284 2162 1269 2172
	 1268 2191 1213 2189 1217 2189
2 3 0 1 -1 7 7 0 20 0.000 0 0 -1 0 0 8
	 965 2216 964 2172 991 2162 1032 2164 1030 2202 1008 2219
	 971 2219 965 2216
2 3 0 1 -1 7 7 0 20 0.000 0 0 -1 0 0 8
	 1066 2229 1064 2184 1092 2173 1133 2176 1131 2212 1109 2230
	 1071 2230 1066 2229
2 3 0 1 -1 7 7 0 20 0.000 0 0 -1 0 0 8
	 920 2212 918 2166 945 2157 987 2158 985 2195 964 2212
	 926 2212 920 2212
2 3 0 1 -1 7 7 0 20 0.000 0 0 -1 0 0 8
	 868 2243 866 2197 893 2187 935 2189 933 2227 910 2245
	 874 2245 868 2243
2 3 0 1 -1 7 7 0 20 0.000 0 0 -1 0 0 9
	 911 2243 911 2221 933 2204 978 2209 978 2214 964 2225
	 962 2245 907 2243 911 2243
2 3 0 1 -1 7 7 0 20 0.000 0 0 -1 0 0 7
	 962 2247 1345 2295 1348 2255 974 2216 960 2235 960 2243
	 962 2247
2 3 0 1 -1 7 7 0 20 0.000 0 0 -1 0 0 9
	 1347 2293 1347 2271 1367 2256 1412 2258 1412 2265 1400 2274
	 1397 2294 1343 2293 1347 2293
2 3 0 1 -1 7 7 0 20 0.000 0 0 -1 0 0 9
	 1762 2214 1762 2193 1784 2176 1829 2181 1829 2186 1815 2196
	 1814 2215 1758 2214 1762 2214
2 3 0 1 -1 7 7 0 20 0.000 0 0 -1 0 0 8
	 1689 2265 1687 2220 1715 2210 1756 2212 1753 2248 1732 2267
	 1695 2267 1689 2265
2 3 0 1 -1 7 7 0 20 0.000 0 0 -1 0 0 8
	 1624 2260 1622 2215 1649 2206 1690 2208 1689 2245 1667 2263
	 1630 2263 1624 2260
2 3 0 1 -1 7 7 0 20 0.000 0 0 -1 0 0 8
	 1559 2257 1556 2212 1584 2202 1625 2202 1623 2240 1601 2257
	 1564 2257 1559 2257
2 3 0 1 -1 7 7 0 20 0.000 0 0 -1 0 0 9
	 1420 2200 1420 2178 1441 2162 1487 2166 1487 2172 1474 2182
	 1472 2202 1416 2200 1420 2200
2 3 0 1 -1 7 7 0 20 0.000 0 0 -1 0 0 9
	 1369 2197 1369 2176 1391 2160 1435 2164 1435 2171 1421 2180
	 1420 2200 1365 2197 1369 2197
2 3 0 1 -1 7 7 0 20 0.000 0 0 -1 0 0 9
	 1318 2194 1318 2172 1340 2157 1384 2160 1384 2166 1371 2176
	 1369 2195 1314 2194 1318 2194
2 3 0 1 -1 7 7 0 20 0.000 0 0 -1 0 0 9
	 1266 2194 1266 2172 1287 2157 1333 2159 1333 2166 1320 2176
	 1317 2195 1262 2194 1266 2194
2 3 0 1 -1 7 7 0 20 0.000 0 0 -1 0 0 9
	 1169 2187 1169 2166 1189 2150 1235 2154 1235 2159 1222 2170
	 1219 2189 1164 2187 1169 2187
2 3 0 1 -1 7 7 0 20 0.000 0 0 -1 0 0 9
	 1119 2184 1119 2162 1141 2146 1186 2150 1186 2157 1172 2166
	 1169 2185 1115 2184 1119 2184
2 3 0 1 -1 7 7 0 20 0.000 0 0 -1 0 0 9
	 1021 2176 1021 2154 1043 2139 1088 2142 1088 2148 1074 2158
	 1071 2177 1017 2176 1021 2176
2 3 0 1 -1 7 7 0 20 0.000 0 0 -1 0 0 9
	 970 2166 970 2144 991 2129 1036 2132 1036 2139 1023 2148
	 1021 2168 967 2166 970 2166
2 3 0 1 -1 7 7 0 20 0.000 0 0 -1 0 0 8
	 1731 2314 1729 2270 1756 2260 1797 2262 1796 2300 1774 2317
	 1737 2317 1731 2314
2 3 0 1 -1 7 7 0 20 0.000 0 0 -1 0 0 8
	 1669 2302 1666 2257 1694 2247 1734 2247 1733 2286 1711 2302
	 1674 2302 1669 2302
2 3 0 1 -1 7 7 0 20 0.000 0 0 -1 0 0 8
	 1538 2298 1537 2252 1564 2243 1605 2245 1603 2282 1582 2300
	 1546 2300 1538 2298
2 3 0 1 -1 7 7 0 20 0.000 0 0 -1 0 0 8
	 1603 2298 1601 2252 1629 2243 1671 2245 1669 2282 1646 2300
	 1609 2300 1603 2298
2 3 0 1 -1 7 7 0 20 0.000 0 0 -1 0 0 8
	 1391 2255 1390 2209 1418 2200 1458 2202 1456 2239 1435 2257
	 1397 2257 1391 2255
2 3 0 1 -1 7 7 0 20 0.000 0 0 -1 0 0 8
	 1343 2250 1341 2204 1367 2195 1410 2197 1407 2235 1386 2252
	 1348 2252 1343 2250
2 3 0 1 -1 7 7 0 20 0.000 0 0 -1 0 0 8
	 1284 2247 1281 2202 1310 2194 1350 2195 1348 2232 1327 2250
	 1289 2250 1284 2247
2 3 0 1 -1 7 7 0 20 0.000 0 0 -1 0 0 8
	 1224 2245 1223 2200 1250 2189 1292 2191 1289 2229 1268 2247
	 1231 2247 1224 2245
2 3 0 1 -1 7 7 0 20 0.000 0 0 -1 0 0 8
	 1169 2238 1166 2193 1193 2183 1235 2185 1233 2221 1211 2240
	 1174 2240 1169 2238
2 3 0 1 -1 7 7 0 20 0.000 0 0 -1 0 0 8
	 1015 2221 1013 2176 1041 2166 1081 2168 1080 2204 1058 2222
	 1021 2222 1015 2221
2 3 0 1 -1 7 7 0 20 0.000 0 0 -1 0 0 8
	 1122 2235 1120 2189 1148 2179 1188 2181 1187 2219 1165 2237
	 1128 2237 1122 2235
2 3 0 1 -1 7 7 0 20 0.000 0 0 -1 0 0 9
	 1071 2179 1071 2158 1094 2142 1138 2146 1138 2152 1124 2162
	 1123 2181 1068 2179 1071 2179
-6
2 3 0 1 -1 166 9 0 20 0.000 0 0 -1 0 0 9
	 702 2222 995 2073 2002 2158 2030 2176 2027 2187 1857 2360
	 699 2237 699 2221 702 2222
2 3 0 0 -1 159 9 0 20 0.000 0 0 -1 0 0 8
	 702 2239 702 2289 1862 2430 2035 2250 2030 2176 1854 2360
	 697 2235 702 2239
2 1 0 2 165 7 8 0 -1 0.000 0 0 -1 0 0 3
	 695 2268 1867 2388 2030 2227
-6
6 315 819 1422 2028
2 3 0 1 0 166 19 0 20 0.000 2 0 7 0 0 5
	 768 980 768 1992 345 1922 345 962 768 980
2 3 0 1 0 166 19 0 20 0.000 2 0 7 0 0 5
	 767 985 767 1987 1370 1682 1370 837 767 985
2 3 0 1 0 166 19 0 20 0.000 2 0 7 0 0 5
	 347 964 769 984 1374 835 1025 820 347 964
2 3 0 0 0 166 18 0 43 0.000 2 0 7 0 0 5
	 360 1497 360 1910 746 1975 746 1537 360 1497
2 1 0 1 7 7 17 0 -1 0.000 2 0 -1 0 0 2
	 463 1167 528 1173
2 1 0 1 165 7 17 0 -1 0.000 0 0 -1 0 0 3
	 462 1167 462 1148 645 1161
2 1 0 1 7 7 17 0 -1 0.000 0 0 7 0 0 5
	 643 1167 643 1180 578 1176 578 1194 522 1190
2 1 0 1 7 7 17 0 -1 0.000 0 0 -1 0 0 3
	 400 1056 713 1078 713 1029
2 1 0 1 165 7 17 0 -1 0.000 0 0 -1 0 0 3
	 405 1055 405 1014 715 1031
2 1 0 1 165 7 17 0 -1 0.000 0 0 -1 0 0 3
	 642 1109 683 1112 683 1100
2 3 0 0 165 38 18 0 20 0.000 0 0 7 0 0 5
	 382 994 382 1107 736 1131 736 1014 382 994
2 3 0 0 165 38 18 0 20 0.000 0 0 7 0 0 5
	 442 1131 442 1217 668 1233 668 1147 442 1131
2 3 0 0 165 38 18 0 20 0.000 0 0 7 0 0 5
	 442 1232 442 1314 668 1334 668 1248 442 1232
2 1 0 1 7 7 17 0 -1 0.000 0 0 7 0 0 3
	 638 1114 638 1095 685 1098
2 3 0 1 0 159 18 0 20 0.000 2 0 7 0 0 5
	 347 1327 347 1477 766 1522 766 1364 347 1327
2 3 0 0 0 165 17 0 20 0.000 2 0 -1 0 0 4
	 366 1366 473 1375 418 1435 366 1366
2 3 0 0 0 165 17 0 20 0.000 2 0 -1 0 0 4
	 537 1471 426 1460 485 1404 537 1471
2 3 0 0 0 165 17 0 20 0.000 2 0 -1 0 0 4
	 493 1376 603 1387 547 1445 493 1376
2 3 0 0 0 165 17 0 20 0.000 2 0 -1 0 0 4
	 670 1484 558 1472 617 1417 670 1484
2 3 0 0 0 165 17 0 20 0.000 2 0 -1 0 0 4
	 632 1390 746 1401 689 1460 632 1390
-6
6 969 971 2428 2128
6 1215 1770 2152 2102
2 3 0 1 0 166 10 0 20 0.000 2 0 -1 0 0 7
	 1233 1953 1844 2019 2137 1839 2152 1909 1852 2102 1215 2034
	 1233 1953
2 3 0 1 0 166 10 0 20 0.000 2 0 -1 0 0 5
	 1226 1956 1844 2019 2139 1839 1546 1770 1226 1956
2 1 0 1 165 166 9 0 20 0.000 2 0 -1 0 0 2
	 1840 2023 1846 2101
-6
2 3 0 1 0 166 9 0 20 0.000 2 0 7 0 0 5
	 2225 1178 2409 1235 2399 1676 2218 1772 2225 1178
2 3 0 1 0 159 8 0 20 0.000 2 0 7 0 0 5
	 2186 1058 2180 1918 2225 1873 2239 1111 2186 1058
2 3 0 1 0 159 8 0 20 0.000 2 0 7 0 0 5
	 2041 1018 2029 1987 2177 1918 2188 1064 2041 1018
2 3 0 1 0 166 7 0 20 0.000 2 0 7 0 0 5
	 993 1030 974 1891 2029 1987 2043 1022 993 1030
3 1 0 2 165 7 6 0 20 0.000 0 0 0 12
	 1059 1171 1051 1759 1051 1815 1099 1821 1891 1881 1939 1885
	 1949 1827 1956 1181 1956 1121 1875 1121 1111 1116 1063 1114
	 1.000 1.000 1.000 1.000 1.000 1.000 1.000 1.000
	 1.000 1.000 1.000 1.000
-6
-6
# Laptop computer
6 225 3150 2475 4955
6 940 4085 1961 4322
1 1 0 1 -1 167 0 0 40 0.000 1 0.0000 998 4115 58 28 998 4115 1056 4144
1 1 0 1 -1 167 0 0 40 0.000 1 0.0000 1240 4160 58 28 1240 4160 1298 4189
1 1 0 1 -1 167 0 0 40 0.000 1 0.0000 1122 4137 58 28 1122 4137 1179 4166
1 1 0 1 -1 167 0 0 40 0.000 1 0.0000 1350 4184 58 28 1350 4184 1408 4213
1 1 0 1 -1 167 0 0 40 0.000 1 0.0000 1456 4206 58 28 1456 4206 1514 4235
1 1 0 1 -1 167 0 0 40 0.000 1 0.0000 1571 4230 58 28 1571 4230 1629 4258
1 1 0 1 -1 167 0 0 40 0.000 1 0.0000 1681 4247 58 28 1681 4247 1739 4276
1 1 0 1 -1 167 0 0 40 0.000 1 0.0000 1796 4270 58 28 1796 4270 1854 4298
1 1 0 1 -1 167 0 0 40 0.000 1 0.0000 1903 4293 58 28 1903 4293 1961 4322
-6
6 776 4186 1797 4423
1 1 0 1 -1 167 0 0 40 0.000 1 0.0000 834 4215 58 28 834 4215 893 4245
1 1 0 1 -1 167 0 0 40 0.000 1 0.0000 1076 4261 58 28 1076 4261 1134 4290
1 1 0 1 -1 167 0 0 40 0.000 1 0.0000 958 4238 58 28 958 4238 1016 4267
1 1 0 1 -1 167 0 0 40 0.000 1 0.0000 1185 4284 58 28 1185 4284 1244 4313
1 1 0 1 -1 167 0 0 40 0.000 1 0.0000 1292 4308 58 28 1292 4308 1350 4336
1 1 0 1 -1 167 0 0 40 0.000 1 0.0000 1407 4331 58 28 1407 4331 1465 4360
1 1 0 1 -1 167 0 0 40 0.000 1 0.0000 1516 4348 58 28 1516 4348 1575 4377
1 1 0 1 -1 167 0 0 40 0.000 1 0.0000 1632 4371 58 28 1632 4371 1690 4400
1 1 0 1 -1 167 0 0 40 0.000 1 0.0000 1739 4394 58 28 1739 4394 1797 4423
-6
6 860 4134 1881 4371
1 1 0 1 -1 167 0 0 40 0.000 1 0.0000 918 4163 58 28 918 4163 976 4193
1 1 0 1 -1 167 0 0 40 0.000 1 0.0000 1160 4209 58 28 1160 4209 1218 4239
1 1 0 1 -1 167 0 0 40 0.000 1 0.0000 1042 4186 58 28 1042 4186 1100 4215
1 1 0 1 -1 167 0 0 40 0.000 1 0.0000 1269 4233 58 28 1269 4233 1327 4261
1 1 0 1 -1 167 0 0 40 0.000 1 0.0000 1376 4256 58 28 1376 4256 1434 4284
1 1 0 1 -1 167 0 0 40 0.000 1 0.0000 1490 4279 58 28 1490 4279 1549 4308
1 1 0 1 -1 167 0 0 40 0.000 1 0.0000 1600 4296 58 28 1600 4296 1658 4325
1 1 0 1 -1 167 0 0 40 0.000 1 0.0000 1716 4319 58 28 1716 4319 1773 4348
1 1 0 1 -1 167 0 0 40 0.000 1 0.0000 1823 4342 58 28 1823 4342 1881 4371
-6
6 690 4232 1710 4469
1 1 0 1 -1 167 0 0 40 0.000 1 0.0000 748 4261 58 28 748 4261 806 4290
1 1 0 1 -1 167 0 0 40 0.000 1 0.0000 990 4308 58 28 990 4308 1048 4336
1 1 0 1 -1 167 0 0 40 0.000 1 0.0000 871 4284 58 28 871 4284 929 4313
1 1 0 1 -1 167 0 0 40 0.000 1 0.0000 1099 4331 58 28 1099 4331 1157 4360
1 1 0 1 -1 167 0 0 40 0.000 1 0.0000 1205 4353 58 28 1205 4353 1264 4382
1 1 0 1 -1 167 0 0 40 0.000 1 0.0000 1321 4377 58 28 1321 4377 1379 4406
1 1 0 1 -1 167 0 0 40 0.000 1 0.0000 1430 4394 58 28 1430 4394 1488 4423
1 1 0 1 -1 167 0 0 40 0.000 1 0.0000 1545 4417 58 28 1545 4417 1603 4445
1 1 0 1 -1 167 0 0 40 0.000 1 0.0000 1652 4440 58 28 1652 4440 1710 4469
-6
1 3 0 1 -1 7 0 0 10 0.000 1 0.0000 969 4607 41 41 969 4607 1010 4648
1 3 0 1 -1 7 0 0 10 0.000 1 0.0000 882 4579 41 41 882 4579 923 4619
2 1 0 3 -1 7 0 0 -1 0.000 0 0 -1 0 0 3
	 1231 3824 1405 3302 2217 3360
2 3 0 1 -1 7 0 0 20 0.000 0 0 -1 0 0 5
	 2217 3360 2071 3940 1231 3824 1405 3302 2217 3360
2 3 0 1 -1 7 1 0 20 0.000 0 0 -1 0 0 7
	 1318 3215 1056 3911 2158 4057 2304 3592 2275 3505 2332 3273
	 1318 3215
2 1 0 1 -1 7 1 0 -1 0.000 0 0 -1 0 0 2
	 2188 4085 2419 3244
2 1 0 1 -1 7 1 0 -1 0.000 0 0 -1 0 0 2
	 2304 3563 2391 3215
2 3 0 1 -1 7 2 0 10 0.000 0 0 -1 0 0 8
	 2362 3186 2275 3505 2304 3592 2158 4057 2217 4115 2449 3273
	 2419 3215 2362 3186
2 3 0 1 -1 7 1 0 20 0.000 0 0 -1 0 0 5
	 1289 3186 1289 3157 1730 3167 1704 3204 1289 3186
2 3 0 1 -1 7 1 0 20 0.000 0 0 -1 0 0 5
	 2355 3193 1877 3176 1877 3210 2346 3230 2355 3193
2 3 0 1 -1 7 1 0 0 0.000 0 0 -1 0 0 6
	 1738 3164 1701 3202 1710 3239 1868 3254 1874 3178 1738 3164
2 3 0 1 -1 7 3 0 10 0.000 0 0 -1 0 0 5
	 1318 3215 1289 3186 2362 3215 2332 3273 1318 3215
2 3 0 1 -1 7 2 0 10 0.000 0 0 -1 0 0 6
	 1318 3215 1289 3186 1202 3389 1231 3447 1056 3882 1318 3215
2 3 0 1 -1 7 0 0 10 0.000 0 0 -1 0 0 5
	 882 4520 1056 4579 1144 4492 969 4433 882 4520
2 3 0 1 -1 7 3 0 20 0.000 0 0 -1 0 0 5
	 563 4346 1695 4607 1463 4811 302 4492 563 4346
2 3 0 1 -1 7 1 0 10 0.000 0 0 -1 0 0 5
	 535 4346 563 4289 1723 4550 1695 4607 535 4346
2 3 0 1 -1 7 1 0 10 0.000 0 0 -1 0 0 5
	 1027 4057 1027 4085 2014 4259 2014 4231 1027 4057
2 3 0 1 -1 7 1 0 10 0.000 0 0 -1 0 0 4
	 1695 4492 1984 4289 1695 4520 1695 4492
2 3 0 1 -1 7 1 0 10 0.000 0 0 -1 0 0 5
	 1463 4868 1463 4955 244 4607 244 4520 1463 4868
2 3 0 1 -1 7 1 0 10 0.000 0 0 -1 0 0 5
	 302 4492 302 4520 1463 4840 1463 4811 302 4492
2 3 0 1 -1 7 3 0 20 0.000 0 0 -1 0 0 6
	 563 4346 535 4342 244 4492 244 4520 302 4520 563 4346
2 3 0 1 -1 -1 0 0 20 0.000 0 0 -1 0 0 5
	 1723 4607 2043 4346 2043 4376 1723 4637 1723 4607
2 3 0 1 -1 -1 1 0 20 0.000 0 0 -1 0 0 5
	 1463 4868 1463 4840 302 4520 244 4520 1463 4868
2 3 0 1 -1 7 1 0 10 0.000 0 0 -1 0 0 5
	 1463 4811 1463 4955 2071 4405 2071 4289 1463 4811
2 3 0 1 -1 7 1 0 10 0.000 0 0 -1 0 0 5
	 622 4259 622 4289 1695 4520 1695 4492 622 4259
2 3 0 1 -1 167 3 0 20 0.000 0 0 -1 0 0 6
	 624 4253 987 4080 2000 4264 1698 4488 629 4258 624 4253
2 3 0 1 -1 7 4 0 20 0.000 0 0 -1 0 0 6
	 563 4289 998 4085 2071 4259 2071 4289 1695 4607 563 4289
2 3 0 1 -1 7 1 0 20 0.000 0 0 -1 0 0 7
	 1173 3940 1144 3970 2071 4115 2101 4085 2071 4057 1173 3911
	 1173 3940
2 3 0 1 -1 7 3 0 10 0.000 0 0 -1 0 0 5
	 1056 3911 1144 3940 2217 4115 2158 4057 1056 3911
2 1 0 1 -1 7 1 0 -1 0.000 0 0 -1 0 0 2
	 1115 4028 1956 4144
2 1 0 1 -1 7 1 0 -1 0.000 0 0 -1 0 0 3
	 1956 4144 2043 4144 2071 4144
2 1 0 1 -1 7 1 0 -1 0.000 0 0 -1 0 0 2
	 1115 4057 1956 4172
2 1 0 1 -1 7 1 0 -1 0.000 0 0 -1 0 0 4
	 1666 4144 1637 4144 1927 4202 1984 4172
2 3 0 1 -1 7 3 0 20 0.000 0 0 -1 0 0 8
	 1144 3970 1115 4028 1027 4057 2014 4231 2130 4144 2071 4144
	 2071 4115 1144 3970
2 3 0 1 -1 7 4 0 10 0.000 0 0 -1 0 0 7
	 2014 4259 2014 4202 2130 4144 2188 4172 2188 4346 2071 4376
	 2014 4259
3 0 0 1 -1 7 3 0 -1 0.000 0 0 0 4
	 1289 3999 1260 3999 1260 4028 1260 4057
	 0.000 1.000 1.000 0.000
3 0 0 1 -1 7 3 0 -1 0.000 0 0 0 3
	 1144 3970 1115 3999 1115 4057
	 0.000 1.000 0.000
3 0 0 1 -1 7 3 0 -1 0.000 0 0 0 4
	 1434 4028 1405 4028 1405 4057 1405 4085
	 0.000 1.000 1.000 0.000
3 0 0 1 -1 7 3 0 -1 0.000 0 0 0 4
	 1666 4057 1637 4057 1637 4085 1637 4115
	 0.000 1.000 1.000 0.000
-6
6 -2565 9720 3690 16065
6 1815 10823 2753 11535
6 2340 10823 2743 11535
6 2367 10823 2743 11504
5 1 0 3 0 7 50 -1 -1 0.000 0 1 0 0 2716.031 11176.717 2716 11036 2696 11316 2705 11317
5 1 0 3 0 7 50 -1 -1 0.000 0 1 0 0 2710.662 11174.715 2717 10858 2671 11489 2693 11491
-6
2 1 0 3 0 7 50 -1 -1 0.000 0 0 -1 0 0 2
	 2712 10853 2712 11039
2 1 0 3 0 7 50 -1 -1 0.000 0 0 -1 0 0 2
	 2712 11318 2712 11504
-6
2 1 0 3 0 7 50 -1 -1 0.000 0 0 -1 0 0 2
	 1853 11160 2340 11160
-6
6 135 9810 405 10575
1 3 0 3 0 7 50 -1 -1 0.000 1 4.7124 270 9915 118 118 270 9915 270 10033
2 1 0 3 0 7 50 -1 -1 0.000 0 0 -1 0 0 2
	 270 10065 270 10553
-6
6 675 11700 1395 12645
6 675 12240 1395 12645
6 675 12240 1395 12645
5 1 0 3 0 7 50 -1 -1 0.000 0 1 0 0 1041.357 12607.000 1182 12608 902 12588 901 12598
5 1 0 3 0 7 50 -1 -1 0.000 0 1 0 0 1043.337 12589.000 1359 12609 728 12563 727 12586
-6
2 1 0 3 0 7 50 -1 -1 0.000 0 0 -1 0 0 2
	 1364 12604 1178 12604
2 1 0 3 0 7 50 -1 -1 0.000 0 0 -1 0 0 2
	 899 12604 713 12604
-6
2 1 0 3 0 7 50 -1 -1 0.000 0 0 -1 0 0 2
	 1057 11745 1057 12233
-6
6 -855 11700 -135 12645
6 -855 12240 -135 12645
6 -855 12240 -135 12645
5 1 0 3 0 7 50 -1 -1 0.000 0 1 0 0 -488.643 12607.000 -348 12608 -628 12588 -629 12598
5 1 0 3 0 7 50 -1 -1 0.000 0 1 0 0 -486.663 12589.000 -171 12609 -802 12563 -803 12586
-6
2 1 0 3 0 7 50 -1 -1 0.000 0 0 -1 0 0 2
	 -166 12604 -352 12604
2 1 0 3 0 7 50 -1 -1 0.000 0 0 -1 0 0 2
	 -631 12604 -817 12604
-6
2 1 0 3 0 7 50 -1 -1 0.000 0 0 -1 0 0 2
	 -473 11745 -473 12233
-6
6 -2565 13185 -630 16065
6 -1755 13185 -1485 13950
1 3 0 3 0 7 50 -1 -1 0.000 1 4.7124 -1620 13290 118 118 -1620 13290 -1620 13408
2 1 0 3 0 7 50 -1 -1 0.000 0 0 -1 0 0 2
	 -1620 13440 -1620 13928
-6
6 -2565 15120 -1845 16065
6 -2565 15660 -1845 16065
6 -2565 15660 -1845 16065
5 1 0 3 0 7 50 -1 -1 0.000 0 1 0 0 -2198.643 16027.000 -2058 16028 -2338 16008 -2339 16018
5 1 0 3 0 7 50 -1 -1 0.000 0 1 0 0 -2196.663 16009.000 -1881 16029 -2512 15983 -2513 16006
-6
2 1 0 3 0 7 50 -1 -1 0.000 0 0 -1 0 0 2
	 -1876 16024 -2062 16024
2 1 0 3 0 7 50 -1 -1 0.000 0 0 -1 0 0 2
	 -2341 16024 -2527 16024
-6
2 1 0 3 0 7 50 -1 -1 0.000 0 0 -1 0 0 2
	 -2183 15165 -2183 15653
-6
6 -1530 15120 -810 16065
6 -1530 15660 -810 16065
6 -1530 15660 -810 16065
5 1 0 3 0 7 50 -1 -1 0.000 0 1 0 0 -1163.643 16027.000 -1023 16028 -1303 16008 -1304 16018
5 1 0 3 0 7 50 -1 -1 0.000 0 1 0 0 -1161.663 16009.000 -846 16029 -1477 15983 -1478 16006
-6
2 1 0 3 0 7 50 -1 -1 0.000 0 0 -1 0 0 2
	 -841 16024 -1027 16024
2 1 0 3 0 7 50 -1 -1 0.000 0 0 -1 0 0 2
	 -1306 16024 -1492 16024
-6
2 1 0 3 0 7 50 -1 -1 0.000 0 0 -1 0 0 2
	 -1148 15165 -1148 15653
-6
2 2 0 3 0 7 50 -1 -1 0.000 0 0 -1 0 0 5
	 -2520 13958 -683 13958 -683 15120 -2520 15120 -2520 13958
4 0 0 50 -1 2 30 0.0000 4 330 720 -1980 14670 I/O\001
-6
6 2025 13095 2295 13860
1 3 0 3 0 7 50 -1 -1 0.000 1 4.7124 2160 13200 118 118 2160 13200 2160 13318
2 1 0 3 0 7 50 -1 -1 0.000 0 0 -1 0 0 2
	 2160 13350 2160 13838
-6
6 1800 15030 2520 15975
6 1800 15570 2520 15975
6 1800 15570 2520 15975
5 1 0 3 0 7 50 -1 -1 0.000 0 1 0 0 2166.358 15936.986 2307 15938 2027 15918 2026 15928
5 1 0 3 0 7 50 -1 -1 0.000 0 1 0 0 2168.337 15918.232 2484 15939 1853 15893 1852 15916
-6
2 1 0 3 0 7 50 -1 -1 0.000 0 0 -1 0 0 2
	 2489 15934 2303 15934
2 1 0 3 0 7 50 -1 -1 0.000 0 0 -1 0 0 2
	 2024 15934 1838 15934
-6
2 1 0 3 0 7 50 -1 -1 0.000 0 0 -1 0 0 2
	 2182 15075 2182 15563
-6
2 2 0 3 0 7 50 -1 -1 0.000 0 0 -1 0 0 5
	 -1305 10530 1853 10530 1853 11700 -1305 11700 -1305 10530
2 1 1 3 0 7 50 -1 -1 4.000 0 0 -1 0 0 2
	 -1620 13095 -495 13140
2 2 0 3 0 7 50 -1 -1 0.000 0 0 -1 0 0 5
	 1260 13868 3097 13868 3097 15030 1260 15030 1260 13868
2 1 1 3 0 7 50 -1 -1 4.000 0 0 -1 0 0 2
	 1035 13185 2017 13185
2 1 1 3 0 7 50 -1 -1 4.000 0 0 -1 0 0 2
	 -495 13185 -495 12555
2 1 1 3 0 7 50 -1 -1 4.000 0 0 -1 0 0 2
	 1035 12555 1035 13230
4 0 0 50 -1 2 30 0.0000 4 435 3045 -1215 11205 PrintingProxy\001
4 0 0 50 -1 2 30 0.0000 4 330 1095 630 10080 Print\001
4 0 0 50 -1 2 30 0.0000 4 330 1095 2565 10665 Print\001
4 0 0 50 -1 2 30 0.0000 4 330 1605 1395 14580 Sockets\001
-6
# Desktop tower
# Drawn by Dirko van Schalkwyk
6 4365 1622 6255 4500
1 1 0 1 0 7 50 -1 -1 0.000 1 0.0000 5253 2894 52 56 5253 2894 5305 2950
1 3 0 1 0 7 50 -1 -1 0.000 1 0.0000 5249 3058 24 24 5249 3058 5274 3083
1 1 0 1 0 7 50 -1 -1 0.000 1 6.1785 4911 3647 118 31 4911 3647 5030 3647
1 1 0 1 0 7 50 -1 -1 0.000 1 6.1785 4911 3794 118 31 4911 3794 5030 3794
1 1 0 1 0 7 50 -1 -1 0.000 1 0.0000 4911 3644 17 14 4911 3644 4929 3630
1 1 0 1 0 7 50 -1 -1 0.000 1 0.0000 4911 3791 17 14 4911 3791 4929 3776
2 3 0 1 0 7 50 -1 -1 0.000 0 0 -1 0 0 6
	 4541 1911 4541 2168 5382 2210 5382 1945 4541 1907 4541 1911
2 3 0 1 0 7 50 -1 -1 0.000 0 0 -1 0 0 6
	 4541 2168 4541 2420 5379 2475 5379 2207 4538 2168 4541 2168
2 3 0 1 0 7 50 -1 -1 0.000 0 0 -1 0 0 5
	 4541 2423 4541 2681 5386 2744 5379 2475 4541 2423
2 3 0 1 0 7 50 -1 -1 0.000 0 0 -1 0 0 6
	 4545 2740 4541 2898 5114 2940 5114 2782 4541 2737 4545 2740
2 3 0 1 0 7 50 -1 -1 0.000 0 0 -1 0 0 6
	 4541 2908 4541 3051 5114 3100 5117 2936 4541 2898 4541 2908
3 0 0 1 0 7 50 -1 -1 0.000 0 0 0 27
	 4402 1865 4388 2200 4377 2761 4384 3299 4402 3742 4426 4084
	 4433 4296 4437 4310 4510 4373 4884 4436 5354 4495 5386 4491
	 5386 4289 5400 4111 5421 3881 5442 3668 5459 3466 5487 3173
	 5498 3037 5515 2057 5515 1949 5511 1914 5473 1914 5379 1907
	 5086 1911 4803 1896 4405 1862
	 0.000 1.000 1.000 1.000 1.000 1.000 1.000 1.000
	 1.000 1.000 1.000 1.000 1.000 1.000 1.000 1.000
	 1.000 1.000 1.000 1.000 1.000 1.000 1.000 1.000
	 1.000 1.000 0.000
3 0 0 1 0 7 50 -1 -1 0.000 0 0 0 25
	 4534 1886 4489 1886 4458 1893 4451 1904 4451 1924 4426 3100
	 4444 3163 4479 3246 4538 3326 4615 3403 4705 3463 4779 3498
	 4876 3526 5002 3532 5096 3519 5243 3463 5344 3382 5410 3288
	 5445 3215 5452 3142 5466 1984 5462 1945 5452 1935 5435 1935
	 5396 1932
	 0.000 1.000 1.000 1.000 1.000 1.000 1.000 1.000
	 1.000 1.000 1.000 1.000 1.000 1.000 1.000 1.000
	 1.000 1.000 1.000 1.000 1.000 1.000 1.000 1.000
	 0.000
3 0 0 1 0 7 50 -1 -1 0.000 0 0 0 16
	 4831 4223 4834 4177 4834 4153 4848 4153 4981 4160 5002 4160
	 5012 4167 5012 4310 5012 4324 5005 4334 4995 4334 4852 4321
	 4842 4314 4834 4300 4831 4268 4831 4198
	 0.000 1.000 1.000 1.000 1.000 1.000 1.000 1.000
	 1.000 1.000 1.000 1.000 1.000 1.000 1.000 0.000
3 0 0 1 0 7 50 -1 -1 0.000 0 0 0 17
	 4521 1893 4510 2936 4517 3072 4541 3149 4608 3218 4663 3260
	 4730 3281 4897 3313 5026 3320 5184 3320 5236 3313 5291 3292
	 5337 3260 5361 3229 5393 3176 5410 3086 5407 1953
	 0.000 1.000 1.000 1.000 1.000 1.000 1.000 1.000
	 1.000 1.000 1.000 1.000 1.000 1.000 1.000 1.000
	 0.000
3 0 0 1 0 7 50 -1 -1 0.000 0 0 0 8
	 5368 4491 5442 4488 5483 4481 5549 4474 5578 4474 5581 4449
	 5570 4376 5487 3156
	 0.000 1.000 1.000 1.000 1.000 1.000 1.000 0.000
3 0 0 1 0 7 50 -1 -1 0.000 0 0 0 10
	 4402 1858 4458 1834 4486 1830 5288 1865 5549 1883 5591 1886
	 5595 1914 5605 4404 5609 4436 5581 4460
	 0.000 1.000 1.000 1.000 1.000 1.000 1.000 1.000
	 1.000 0.000
3 0 0 1 0 7 50 -1 -1 0.000 0 0 0 11
	 4461 1830 5226 1639 5260 1624 5326 1624 6192 1659 6237 1677
	 6237 1754 6234 3752 6234 3791 6219 3812 5609 4432
	 0.000 1.000 1.000 1.000 1.000 1.000 1.000 1.000
	 1.000 1.000 0.000
3 0 0 1 0 7 50 -1 -1 0.000 0 0 0 2
	 5588 1984 6237 1736
	 0.000 0.000
3 0 0 1 0 7 50 -1 -1 0.000 0 0 0 2
	 5591 1900 6230 1673
	 0.000 0.000
-6
