#FIG 3.2  Produced by xfig version 3.2.5b
Landscape
Center
Metric
A4      
100.00
Single
-2
1200 2
0 32 #e2e2ee
0 33 #94949a
0 34 #dbdbdb
0 35 #a1a1b7
0 36 #9c0000
0 37 #ededed
0 38 #e0e0e0
0 39 #86acff
0 40 #7070ff
0 41 #8e8e8e
0 42 #8c8c8c
0 43 #424242
0 44 #8c8c8c
0 45 #424242
0 46 #8c8c8c
0 47 #424242
0 48 #8c8c8c
0 49 #424242
0 50 #8c8c8c
0 51 #424242
0 52 #dd9d93
0 53 #f1ece0
0 54 #c3c3c3
0 55 #e2c8a8
0 56 #e1e1e1
0 57 #d2d2d2
0 58 #da7a1a
0 59 #f1e41a
0 60 #887dc2
0 61 #b0a193
0 62 #837cdd
0 63 #d6d6d6
0 64 #8c8ca5
0 65 #4a4a4a
0 66 #8c6b6b
0 67 #5a5a5a
0 68 #636363
0 69 #b79b73
0 70 #4193ff
0 71 #bf703b
0 72 #db7700
0 73 #dab800
0 74 #006400
0 75 #5a6b3b
0 76 #d3d3d3
0 77 #aaaaaa
0 78 #8e8ea4
0 79 #f3b95d
0 80 #89996b
0 81 #646464
0 82 #b7e6ff
0 83 #86c0ec
0 84 #bdbdbd
0 85 #d39552
0 86 #98d2fe
0 87 #616161
0 88 #aeb2ae
0 89 #717171
0 90 #ff9a00
0 91 #8c9c6b
0 92 #f76b00
0 93 #5a6b39
0 94 #8c9c6b
0 95 #8c9c7b
0 96 #184a18
0 97 #adadad
0 98 #f7bd5a
0 99 #636b9c
0 100 #f7f7f7
0 101 #de0000
0 102 #adadad
0 103 #f7bd5a
0 104 #adadad
0 105 #f7bd5a
0 106 #636b9c
0 107 #526b29
0 108 #949494
0 109 #006300
0 110 #00634a
0 111 #7b844a
0 112 #e7bd7b
0 113 #a5b5c6
0 114 #6b6b94
0 115 #846b6b
0 116 #529c4a
0 117 #d6e7e7
0 118 #526363
0 119 #186b4a
0 120 #9ca5b5
0 121 #ff9400
0 122 #ff9400
0 123 #00634a
0 124 #7b844a
0 125 #63737b
0 126 #e7bd7b
0 127 #184a18
0 128 #000000
0 129 #f73829
0 130 #000000
0 131 #ffff52
0 132 #52794a
0 133 #639a5a
0 134 #c66142
0 135 #e76942
0 136 #ff7952
0 137 #dedede
0 138 #f3eed3
0 139 #f5ae5d
0 140 #95ce99
0 141 #b5157d
0 142 #eeeeee
0 143 #848484
0 144 #7b7b7b
0 145 #005a00
0 146 #e77373
0 147 #ffcb31
0 148 #29794a
0 149 #de2821
0 150 #2159c6
0 151 #f8f8f8
0 152 #e6e6e6
0 153 #21845a
0 154 #c9c9c9
0 155 #dfd8df
0 156 #f7f3f7
0 157 #7c7c7c
0 158 #c9aaa1
0 159 #808080
0 160 #b6b6b6
0 161 #ac9478
6 990 855 2250 1530
1 3 0 3 0 7 50 -1 -1 0.000 1 0.0000 1440 1350 142 142 1440 1350 1582 1350
2 1 0 3 0 7 50 -1 -1 0.000 0 0 -1 0 0 2
	 1620 1350 2205 1350
4 0 0 50 -1 2 12 0.0000 4 135 300 990 990 IF1\001
-6
6 990 2070 2220 2729
1 3 0 3 0 7 50 -1 -1 0.000 1 0.0000 1440 2565 142 142 1440 2565 1582 2565
2 1 0 3 0 7 50 -1 -1 0.000 0 0 -1 0 0 2
	 1620 2565 2205 2565
4 0 0 50 -1 2 12 0.0000 4 135 300 990 2205 IF2\001
-6
6 4950 945 5433 1800
6 4982 945 5433 1763
5 1 0 3 0 7 50 -1 -1 0.000 0 1 0 0 5397.761 1369.626 5401 1201 5377 1537 5388 1538
5 1 0 3 0 7 50 -1 -1 0.000 0 1 0 0 5388.536 1367.520 5402 988 5347 1745 5374 1747
-6
2 1 0 3 0 7 50 -1 -1 0.000 0 0 -1 0 0 2
	 5396 982 5396 1205
2 1 0 3 0 7 50 -1 -1 0.000 0 0 -1 0 0 2
	 5396 1540 5396 1763
-6
6 4917 2115 5400 2970
6 4949 2115 5400 2933
5 1 0 3 0 7 50 -1 -1 0.000 0 1 0 0 5364.761 2539.626 5368 2371 5344 2707 5355 2708
5 1 0 3 0 7 50 -1 -1 0.000 0 1 0 0 5355.536 2537.520 5369 2158 5314 2915 5341 2917
-6
2 1 0 3 0 7 50 -1 -1 0.000 0 0 -1 0 0 2
	 5363 2152 5363 2375
2 1 0 3 0 7 50 -1 -1 0.000 0 0 -1 0 0 2
	 5363 2710 5363 2933
-6
6 8010 810 9270 1485
1 3 0 3 0 7 50 -1 -1 0.000 1 0.0000 8460 1305 142 142 8460 1305 8602 1305
2 1 0 3 0 7 50 -1 -1 0.000 0 0 -1 0 0 2
	 8640 1305 9225 1305
4 0 0 50 -1 2 12 0.0000 4 135 300 8010 945 IF1\001
-6
6 8010 2025 9240 2684
1 3 0 3 0 7 50 -1 -1 0.000 1 0.0000 8460 2520 142 142 8460 2520 8602 2520
2 1 0 3 0 7 50 -1 -1 0.000 0 0 -1 0 0 2
	 8640 2520 9225 2520
4 0 0 50 -1 2 12 0.0000 4 135 300 8010 2160 IF2\001
-6
6 11970 900 12453 1755
6 12002 900 12453 1718
5 1 0 3 0 7 50 -1 -1 0.000 0 1 0 0 12417.762 1324.626 12421 1156 12397 1492 12408 1493
5 1 0 3 0 7 50 -1 -1 0.000 0 1 0 0 12408.535 1322.520 12422 943 12367 1700 12394 1702
-6
2 1 0 3 0 7 50 -1 -1 0.000 0 0 -1 0 0 2
	 12416 937 12416 1160
2 1 0 3 0 7 50 -1 -1 0.000 0 0 -1 0 0 2
	 12416 1495 12416 1718
-6
1 3 0 3 0 7 50 -1 -1 0.000 1 0.0000 1440 4005 142 142 1440 4005 1582 4005
1 3 0 3 0 7 50 -1 -1 0.000 1 0.0000 8460 3960 142 142 8460 3960 8602 3960
2 2 0 3 0 7 50 -1 -1 0.000 0 0 -1 0 0 5
	 2205 585 4365 585 4365 5625 2205 5625 2205 585
2 1 0 3 0 7 50 -1 -1 0.000 0 0 -1 0 0 2
	 1620 4005 2205 4005
2 1 0 3 0 7 50 -1 -1 0.000 0 0 -1 0 0 2
	 4365 1350 4950 1350
2 1 0 3 0 7 50 -1 -1 0.000 0 0 -1 0 0 2
	 4365 2520 4950 2520
2 1 0 3 0 7 50 -1 -1 0.000 0 0 -1 0 0 2
	 4365 4005 4950 4005
2 1 0 3 0 7 50 -1 -1 0.000 0 0 -1 0 0 3
	 5355 3780 5535 4005 5400 4230
2 1 0 3 0 7 50 -1 -1 0.000 0 0 -1 0 0 5
	 5355 3825 4950 3825 4950 4230 5355 4230 5400 4230
2 1 1 3 0 7 50 -1 -1 4.000 0 0 -1 0 0 2
	 5265 1350 8325 1350
2 1 1 3 0 7 50 -1 -1 4.000 0 0 -1 0 0 2
	 5220 2520 8280 2520
2 1 1 3 0 7 50 -1 -1 4.000 0 0 -1 0 0 2
	 5535 4005 8325 4905
2 2 0 3 0 7 50 -1 -1 0.000 0 0 -1 0 0 5
	 9225 540 11385 540 11385 5580 9225 5580 9225 540
2 1 0 3 0 7 50 -1 -1 0.000 0 0 -1 0 0 2
	 8640 3960 9225 3960
2 1 0 3 0 7 50 -1 -1 0.000 0 0 -1 0 0 2
	 11385 1305 11970 1305
2 1 0 3 0 7 50 -1 -1 0.000 0 0 -1 0 0 2
	 8685 4905 9270 4905
2 1 0 3 0 7 50 -1 -1 0.000 0 0 -1 0 0 3
	 8190 4680 8550 4680 8685 4905
2 1 0 3 0 7 50 -1 -1 0.000 0 0 -1 0 0 3
	 8190 5130 8550 5130 8685 4905
2 1 0 3 0 7 50 -1 -1 0.000 0 0 -1 0 0 3
	 8145 4680 8325 4905 8190 5130
4 0 0 50 -1 2 12 0.0000 4 135 300 990 3645 IF3\001
4 0 0 50 -1 2 12 0.0000 4 180 1110 2745 945 Composant 1\001
4 0 0 50 -1 2 12 0.0000 4 135 315 5580 765 IR1\001
4 0 0 50 -1 2 12 0.0000 4 135 315 5580 2115 IR2\001
4 0 0 50 -1 2 12 0.0000 4 135 360 5625 3735 PE1\001
4 0 0 50 -1 2 12 0.0000 4 135 300 8010 3600 IF3\001
4 0 0 50 -1 2 12 0.0000 4 135 345 7875 4545 SE1\001
4 0 0 50 -1 2 12 0.0000 4 180 1110 9765 900 Composant 2\001
4 0 0 50 -1 2 12 0.0000 4 135 315 12600 720 IR1\001
